[gd_scene load_steps=5 format=2]

[ext_resource path="res://Assets/UI/Buttons/blue_button05.png" type="Texture" id=1]
[ext_resource path="res://Assets/UI/Art/BackGround.png" type="Texture" id=2]
[ext_resource path="res://Assets/UI/Buttons/blue_button03.png" type="Texture" id=3]
[ext_resource path="res://Resources/Fonts/kfn_40_o1.tres" type="DynamicFont" id=4]

[node name="MainMenu" type="Control"]
anchor_right = 1.0
anchor_bottom = 1.0

[node name="B" type="TextureRect" parent="."]
anchor_right = 1.0
anchor_bottom = 1.0
texture = ExtResource( 2 )
expand = true

[node name="M" type="MarginContainer" parent="."]
anchor_right = 1.0
anchor_bottom = 1.0
custom_constants/margin_right = 50
custom_constants/margin_top = 50
custom_constants/margin_left = 50
custom_constants/margin_bottom = 50

[node name="VB" type="VBoxContainer" parent="M"]
margin_left = 730.0
margin_top = 50.0
margin_right = 1230.0
margin_bottom = 670.0
rect_min_size = Vector2( 500, 0 )
size_flags_horizontal = 8
custom_constants/separation = 35
alignment = 1

[node name="NewGame" type="TextureButton" parent="M/VB"]
margin_left = 75.0
margin_top = 80.0
margin_right = 425.0
margin_bottom = 155.0
rect_min_size = Vector2( 350, 75 )
size_flags_horizontal = 4
texture_normal = ExtResource( 3 )
texture_pressed = ExtResource( 1 )
expand = true

[node name="Label" type="Label" parent="M/VB/NewGame"]
anchor_right = 1.0
anchor_bottom = 1.0
custom_colors/font_color_shadow = Color( 0, 0, 0, 0.705882 )
custom_fonts/font = ExtResource( 4 )
text = "New Game"
align = 1
valign = 1

[node name="Settings" type="TextureButton" parent="M/VB"]
margin_left = 75.0
margin_top = 190.0
margin_right = 425.0
margin_bottom = 265.0
rect_min_size = Vector2( 350, 75 )
size_flags_horizontal = 4
texture_normal = ExtResource( 3 )
texture_pressed = ExtResource( 1 )
expand = true

[node name="Label" type="Label" parent="M/VB/Settings"]
anchor_right = 1.0
anchor_bottom = 1.0
custom_colors/font_color_shadow = Color( 0, 0, 0, 0.705882 )
custom_fonts/font = ExtResource( 4 )
text = "Settings"
align = 1
valign = 1

[node name="About" type="TextureButton" parent="M/VB"]
margin_left = 75.0
margin_top = 300.0
margin_right = 425.0
margin_bottom = 375.0
rect_min_size = Vector2( 350, 75 )
size_flags_horizontal = 4
texture_normal = ExtResource( 3 )
texture_pressed = ExtResource( 1 )
expand = true

[node name="Label" type="Label" parent="M/VB/About"]
anchor_right = 1.0
anchor_bottom = 1.0
custom_colors/font_color_shadow = Color( 0, 0, 0, 0.705882 )
custom_fonts/font = ExtResource( 4 )
text = "About"
align = 1
valign = 1

[node name="Control" type="Control" parent="M/VB"]
margin_top = 410.0
margin_right = 500.0
margin_bottom = 430.0
rect_min_size = Vector2( 0, 20 )

[node name="Quit" type="TextureButton" parent="M/VB"]
margin_left = 75.0
margin_top = 465.0
margin_right = 425.0
margin_bottom = 540.0
rect_min_size = Vector2( 350, 75 )
size_flags_horizontal = 4
texture_normal = ExtResource( 3 )
texture_pressed = ExtResource( 1 )
expand = true

[node name="Label" type="Label" parent="M/VB/Quit"]
anchor_right = 1.0
anchor_bottom = 1.0
custom_colors/font_color_shadow = Color( 0, 0, 0, 0.705882 )
custom_fonts/font = ExtResource( 4 )
text = "Quit"
align = 1
valign = 1
